23

9
-6
2
5
-7
4
3

-5
5
2
8
-4
-4
8

-8
-3
-4
6
-6
-7
3

4
7
-5
-4
-9
-7
9
-7

3
-8
-6
7
5
3
-4

9
-9
-2
2
9
-2
5
-6
5

9
-7
-5
-4
-2
-4
5
4
9

-2
9
5
6
-9
7
7

2
6
-9
6
7
-7
-2
4

7
-9
-1
5
-2
-4
6
1

-8
-5
-2
-4
1
7
8
6
-4

-3
-9
9
8
8
-4
8

-3
-9
-8
9
8
9
-8
6

-4
-5
3
2
-9
-1
-5

-8
1
1
-5
3
4
-7
-2

-1
-1
5
6
3
-4
9
-4

-8
-6
-6
-7
9
-5
-7

-9
-9
-1
-6
-2
-2
8
6

1
-8
-5
-2
1
-3
8
-5
1

-8
4
-5
5
-7
6
-3

8
7
-9
-6
6
4
3
-1
2

2
2
-8
-6
-8
-9
-4
7
3

5
4
8
1
2
-6
-6
9
