24

8
-7
4
4
-7
15
-5
-5
-2
12
1
7
13
5
12
-7

-8
9
-2
-10
3
-5
8
-10
-4
-7
-6

-1
7

-8
11
-1
5
11
9
-6
13
-8
7
10
3
2

15
-3
10
-7
-10
-9
5
14
-1
15

10
-4
-7
1
11
5
4
-7
8
2

2
-6
12
-7
-5

13
-7
-7
-3
14
-2
3
4
6
-9
-6
2
11
-7
-1
-3
6
-10
9

14
-1

-4
-5
-2
12
-2
6
-5

2
-5
-9
15
3
3
-7
-8
10
10
11
-9

-4
5
-4
9
12
13
-5
-5
3

-8
9
-1
-9

-5
-7
-2
-6
-9

5
-1

1
4
8
-6
-7
2
-7
1
-9
6
14
1
8
-5
-8
4
11
10
-4
8

-8
-2
-5
-8
-6
-10
15
1
-6

12
14
15
-3
-7
12
3
9
12
2
14

6
4
-7
-3
6
15
12
4
11

-7
-7
-7
2
6
-7
-3
14
-9
1
-6
-3
2
4

9

9
4
11
13
-7
2
5
8
3
-3
3
14
-9
-2
-8
12

2
-10
-6
15
-8
-8
7
-5
15
2
8
9
-3
-4
-7
-9

2
3
13
11
-4
-6
-7
