-72 -32 -104 -80 672
-48 -56 32 -56 768
-64 -56 -104 -48 -56 -88 -64 456
-24 -72 -120 -16 -64 656
-96 -96 784
-88 -80 -96 -72 -24 592
-16 -80 -120 -120 -16 -72 520
-112 -88 -64 -56 -80 -88 456
-16 -88 -16 -72 -64 696
-56 -72 -80 -40 -120 584
-56 -80 -112 -104 608
-112 -48 -80 728
-48 -112 -32 -48 -112 -56 536
-32 -96 -80 -32 -104 608
48 -24 -88 -88 712
-8 -112 -56 -64 -16 696
-112 -64 -96 -56 -48 -16 -112 432
-88 -64 -32 -104 672
-48 -32 -88 -120 -96 -32 528
-104 -88 -72 -96 -80 -80 424
-56 -104 -88 -32 -16 -8 640
-48 -112 -120 688
-104 -96 -56 -88 -120 488
-24 -8 16 -56 -80 -16 744
-24 -72 -120 -16 -96 -112 504
-32 -16 -88 -8 -112 -24 664
-120 40 -32 -24 -72 664
-16 -80 -120 -32 -32 -120 544
-72 -80 -120 696
