26

9
11
-7
-1
-8
-1
11
-2
-8
1
-5
14
-2
-3
-5
10

12
-5
-7
2
-2
-1
-4
-1
-10
8
1
15
3
-3
4
11
-10
15
1
-8

-7
-10
-3
8
-8
-2
-9
-10
6
-5

-8
-6
-10
-9
-5
-10
11
-5
1
-4
-3
6
-3
-3
6

7
-2
14
2
-4
6
6
9
-3

-7
15
-8
15
-1
8
-6
-8
-10
-3
-10
4
4
-9
13

2
-2
8
2
-5

-4
10
9

-10
-8
11

15
-1
5
-5
2
-4
14
-4
-1
6

-4
-3
11
2
-1
-6

2

9
1
11
10
5
10
-5
8
-10
-9
11
-10

2
2
3
-1
10

1
7
12
1
9
-8
1
7
-9
3
-2
-10
7
12
-5
-7
10
4

-8
-2
1
-5

-5
9
1
3
-3
12

6
10
-4
6
4
1
13

-6
12
6
10
-2
15
10
-6
9
6
-6
-2
-1
12
-1
4
7
-7

-9
9
-6
11
13
2
-1
4
-4

14
9
8
14
-6

-7
5
-5
-10
12
12
-1
12
-5
-1
-2
-8
-7

4
-9
-4
2
14
-1
9

-8
-3
-1
1
3
-8
1

3
6
4
6
11
10
-9
13
-10
-5
2

-2
-10
12
-10
-10
